{
  "project_info": {
    "project_number": "369452199670",
    "firebase_url": "https://campi-44110.firebaseio.com",
    "project_id": "campi-44110",
    "storage_bucket": "campi-44110.appspot.com"
  },
  "client": [
    {
      "client_info": {
        "mobilesdk_app_id": "1:369452199670:android:3fcad4dd2e2363ef",
        "android_client_info": {
          "package_name": "com.gamach.campi"
        }
      },
      "oauth_client": [
        {
          "client_id": "369452199670-9fe0smqdebq2u56e4n2d7rfrgllpe8ip.apps.googleusercontent.com",
          "client_type": 1,
          "android_info": {
            "package_name": "com.gamach.campi",
            "certificate_hash": "b36eaf05a487b2ce57afde7d7bd3142c952328be"
          }
        },
        {
          "client_id": "369452199670-p7dq0l8o3fkiq67fgj40ogh80id5bd85.apps.googleusercontent.com",
          "client_type": 3
        }
      ],
      "api_key": [
        {
          "current_key": "AIzaSyD2yVgViBtXACl9l4JDG-cb7Hu08ZPIkQw"
        }
      ],
      "services": {
        "analytics_service": {
          "status": 1
        },
        "appinvite_service": {
          "status": 2,
          "other_platform_oauth_client": [
            {
              "client_id": "369452199670-p7dq0l8o3fkiq67fgj40ogh80id5bd85.apps.googleusercontent.com",
              "client_type": 3
            }
          ]
        },
        "ads_service": {
          "status": 2
        }
      }
    }
  ],
  "configuration_version": "1"
}